Nom,Prénom,Téléphone,Email,Formation,"interessé par","j'ai connu l'ipssi grâce",Date
Dupont,Dupont,0123456789,dupont@fr.fr,Detective,BTC|MWB,autres,2024-06-10
Perlin,Milou,0101010101,azerty@fr.fr,"wouaf","BTS SIO|MIA",,2024-06-10
